Tidymodels Demo Pt. 2
…
• Log transformation on: living_in_m2 m2_per_bedroom | Trained

• Centering and scaling for: living_in_m2 m2_per_bedroom, ... | Trained

• Dummy variables from: grade, quartile_zone, quarter | Trained

• Variables removed: month | Trained

• Zero variance filter removed: <none> | Trained

train_data_proc <- bake(rec_prep, new_data = NULL)

train_data_proc

# A tibble: 16,240 × 28
   date       bedrooms has_basement living_in_m2 renovated nice_view
   <date>        <dbl>        <dbl>        <dbl>     <dbl>     <dbl>
 1 2014-06-04        2            1      -0.567          0         0
 2 2014-07-11        2            0      -1.21           0         0
 3 2014-07-22        3            1      -0.0853         0         0
 4 2014-10-10        1            0      -1.52           0         0
 5 2014-11-05        2            0      -1.93           0         0
 6 2014-08-08        1            0      -1.52           1         0
 7 2015-03-09        2            0      -0.190          0         0
 8 2014-09-18        2            0      -1.23           0         0
 9 2014-06-23        3            0       0.244          0         0
10 2015-02-19        2            0      -1.42           0         0
# ℹ 16,230 more rows
# ℹ 22 more variables: perfect_condition <dbl>, real_bathrooms <dbl>,
#   has_lavatory <dbl>, single_floor <dbl>, price <dbl>, m2_per_bedroom <dbl>,
#   bathrooms_per_bedroom <dbl>, has_multiple_bathrooms <dbl>,
#   quality_score <dbl>, grade_1 <dbl>, grade_2 <dbl>, grade_3 <dbl>,
#   grade_4 <dbl>, grade_5 <dbl>, quartile_zone_X1 <dbl>,
#   quartile_zone_X2 <dbl>, quartile_zone_X3 <dbl>, quartile_zone_X4 <dbl>, …
…
