Tidymodels Demo Pt. 4
…
Ajuste por validación cruzada

tuned_glmnet <- tune_grid(
  wf_glmnet,
  resamples = cv_folds,
  grid = glmnet_grid,
  metrics = reg_metrics
)

Resultados del tuning

collect_metrics(tuned_glmnet)

# A tibble: 75 × 8
   penalty mixture .metric .estimator       mean     n   std_err .config        
     <dbl>   <dbl> <chr>   <chr>           <dbl> <int>     <dbl> <chr>          
 1  0.0001    0    mae     standard    77620.        5 575.      pre0_mod01_pos…
 2  0.0001    0    rmse    standard   104066.        5 564.      pre0_mod01_pos…
 3  0.0001    0    rsq     standard        0.751     5   0.00281 pre0_mod01_pos…
 4  0.0001    0.25 mae     standard    77555.        5 582.      pre0_mod02_pos…
 5  0.0001    0.25 rmse    standard   103866.        5 542.      pre0_mod02_pos…
 6  0.0001    0.25 rsq     standard        0.751     5   0.00288 pre0_mod02_pos…
 7  0.0001    0.5  mae     standard    77561.        5 584.      pre0_mod03_pos…
 8  0.0001    0.5  rmse    standard   103871.        5 543.      pre0_mod03_pos…
 9  0.0001    0.5  rsq     standard        0.751     5   0.00288 pre0_mod03_pos…
10  0.0001    0.75 mae     standard    77566.        5 583.      pre0_mod04_pos…
# ℹ 65 more rows
…
• There are as many tuning parameters as there are initial points. This is
  likely to cause numerical issues in the first few search iterations.

! The Gaussian process model is being fit using 5 features but only has 5
  data points to do so. This may cause errors or a poor model fit.

! The Gaussian process model is being fit using 5 features but only has 6
  data points to do so. This may cause errors or a poor model fit.

Resultados del tuning

collect_metrics(tuned_lgbm)

# A tibble: 75 × 12
   trees tree_depth learn_rate  mtry min_n .metric .estimator       mean     n
   <int>      <int>      <dbl> <int> <int> <chr>   <chr>           <dbl> <int>
 1  1000          4    0.00316     1     2 mae     standard   100224.        5
 2  1000          4    0.00316     1     2 rmse    standard   129031.        5
 3  1000          4    0.00316     1     2 rsq     standard        0.703     5
 4  1500         15    0.1         4    21 mae     standard    76137.        5
 5  1500         15    0.1         4    21 rmse    standard   104443.        5
 6  1500         15    0.1         4    21 rsq     standard        0.750     5
 7   500         11    0.001       7    40 mae     standard   122931.        5
 8   500         11    0.001       7    40 rmse    standard   155784.        5
 9   500         11    0.001       7    40 rsq     standard        0.745     5
10  2000          1    0.01       10    30 mae     standard    77892.        5
# ℹ 65 more rows
# ℹ 3 more variables: std_err <dbl>, .config <chr>, .iter <int>
…
